\relax 
\providecommand\hyper@newdestlabel[2]{}
\@writefile{toc}{\contentsline {section}{\numberline {5.2}Bitwise Macros}{12}{section.5.2}}
\newlabel{a00013}{{5.2}{12}{Bitwise Macros}{section.5.2}{}}
\newlabel{a00013_ga16c061d0f0d68324dc7532e78502bc17}{{5.2}{12}{Macros}{section*.4}{}}
\newlabel{a00013_ga5bf25a943f9cf1ca95b46d386cd98788}{{5.2}{12}{Macros}{section*.4}{}}
\newlabel{a00013_gaed0f88a4b26c118a1b6fe30fa5a7bb26}{{5.2}{12}{Macros}{section*.4}{}}
\newlabel{a00013_ga22ef734f55aa6db995aec2a23ac37f76}{{5.2}{12}{Macros}{section*.4}{}}
\newlabel{a00013_ga25188c7fcaf98b2d324a977b0c8e3bd7}{{5.2}{12}{Macros}{section*.4}{}}
\newlabel{a00013_ga0d0347250ec573cd8dc60189ffee486e}{{5.2}{12}{Macros}{section*.4}{}}
\newlabel{a00013_ga1060930df93f34f91840336237336c82}{{5.2}{12}{Macros}{section*.4}{}}
\newlabel{a00013_ga97bc25abdcd9251461e0408000e72054}{{5.2}{12}{Macros}{section*.4}{}}
\newlabel{a00013_gaf6423abe61b87b79f154be9a2b0fd67b}{{5.2}{12}{Macros}{section*.4}{}}
\newlabel{a00013_ga9e448bc39fcf7d6d6be9ea71a9b78858}{{5.2}{12}{Macros}{section*.4}{}}
\@writefile{toc}{\contentsline {subsection}{\numberline {5.2.1}Detailed Description}{12}{subsection.5.2.1}}
\@setckpt{a00013}{
\setcounter{page}{13}
\setcounter{equation}{0}
\setcounter{enumi}{7}
\setcounter{enumii}{0}
\setcounter{enumiii}{0}
\setcounter{enumiv}{0}
\setcounter{footnote}{0}
\setcounter{mpfootnote}{0}
\setcounter{part}{0}
\setcounter{chapter}{5}
\setcounter{section}{2}
\setcounter{subsection}{1}
\setcounter{subsubsection}{0}
\setcounter{paragraph}{0}
\setcounter{subparagraph}{0}
\setcounter{figure}{0}
\setcounter{table}{0}
\setcounter{float@type}{4}
\setcounter{PWSTtable}{0}
\setcounter{NAT@ctr}{0}
\setcounter{lofdepth}{1}
\setcounter{lotdepth}{1}
\setcounter{Item}{10}
\setcounter{Hfootnote}{0}
\setcounter{bookmark@seq@number}{16}
\setcounter{section@level}{2}
}
