digraph "main.c"
{
  edge [fontname="Helvetica",fontsize="10",labelfontname="Helvetica",labelfontsize="10"];
  node [fontname="Helvetica",fontsize="10",shape=record];
  Node1 [label="main.c",height=0.2,width=0.4,color="black", fillcolor="grey75", style="filled" fontcolor="black"];
  Node1 -> Node2 [color="midnightblue",fontsize="10",style="solid"];
  Node2 [label="AssemblyInterpreter.h",height=0.2,width=0.4,color="black", fillcolor="white", style="filled",URL="$a00005_source.html"];
  Node2 -> Node3 [color="midnightblue",fontsize="10",style="solid"];
  Node3 [label="MemoryModel.h",height=0.2,width=0.4,color="black", fillcolor="white", style="filled",URL="$a00010.html",tooltip="Defines memory components of HCS12. "];
  Node2 -> Node4 [color="midnightblue",fontsize="10",style="solid"];
  Node4 [label="HCS12Assembler.h",height=0.2,width=0.4,color="black", fillcolor="white", style="filled",URL="$a00008.html",tooltip="Defines the HCS12 Assembler Commands. "];
  Node2 -> Node5 [color="midnightblue",fontsize="10",style="solid"];
  Node5 [label="opts.h",height=0.2,width=0.4,color="black", fillcolor="white", style="filled",URL="$a00011.html",tooltip="Defines simple bit operation macros. "];
}
