digraph "ConsoleIO.c"
{
  edge [fontname="Helvetica",fontsize="10",labelfontname="Helvetica",labelfontsize="10"];
  node [fontname="Helvetica",fontsize="10",shape=record];
  Node1 [label="ConsoleIO.c",height=0.2,width=0.4,color="black", fillcolor="grey75", style="filled" fontcolor="black"];
  Node1 -> Node2 [color="midnightblue",fontsize="10",style="solid"];
  Node2 [label="ConsoleIO.h",height=0.2,width=0.4,color="black", fillcolor="white", style="filled",URL="$a00007_source.html"];
  Node2 -> Node3 [color="midnightblue",fontsize="10",style="solid"];
  Node3 [label="hidef.h",height=0.2,width=0.4,color="grey75", fillcolor="white", style="filled"];
  Node2 -> Node4 [color="midnightblue",fontsize="10",style="solid"];
  Node4 [label="derivative.h",height=0.2,width=0.4,color="grey75", fillcolor="white", style="filled"];
  Node2 -> Node5 [color="midnightblue",fontsize="10",style="solid"];
  Node5 [label="MemoryModel.h",height=0.2,width=0.4,color="black", fillcolor="white", style="filled",URL="$a00010.html",tooltip="Defines memory components of HCS12. "];
  Node2 -> Node6 [color="midnightblue",fontsize="10",style="solid"];
  Node6 [label="opts.h",height=0.2,width=0.4,color="black", fillcolor="white", style="filled",URL="$a00011.html",tooltip="Defines simple bit operation macros. "];
  Node1 -> Node7 [color="midnightblue",fontsize="10",style="solid"];
  Node7 [label="mc9s12c32.h",height=0.2,width=0.4,color="grey75", fillcolor="white", style="filled"];
}
