\relax 
\providecommand\hyper@newdestlabel[2]{}
\providecommand\HyperFirstAtBeginDocument{\AtBeginDocument}
\HyperFirstAtBeginDocument{\ifx\hyper@anchor\@undefined
\global\let\oldcontentsline\contentsline
\gdef\contentsline#1#2#3#4{\oldcontentsline{#1}{#2}{#3}}
\global\let\oldnewlabel\newlabel
\gdef\newlabel#1#2{\newlabelxx{#1}#2}
\gdef\newlabelxx#1#2#3#4#5#6{\oldnewlabel{#1}{{#2}{#3}}}
\AtEndDocument{\ifx\hyper@anchor\@undefined
\let\contentsline\oldcontentsline
\let\newlabel\oldnewlabel
\fi}
\fi}
\global\let\hyper@last\relax 
\gdef\HyperFirstAtBeginDocument#1{#1}
\providecommand\HyField@AuxAddToFields[1]{}
\providecommand\HyField@AuxAddToCoFields[2]{}
\@writefile{toc}{\contentsline {chapter}{\numberline {1}Retro-\/\discretionary {-}{}{}Computer}{1}{chapter.1}}
\@writefile{lof}{\addvspace {10\p@ }}
\@writefile{lot}{\addvspace {10\p@ }}
\newlabel{index}{{1}{1}{Retro-\/\-Computer}{chapter.1}{}}
\@writefile{toc}{\contentsline {section}{\numberline {1.1}Introduction}{1}{section.1.1}}
\newlabel{index_intro}{{1.1}{1}{Introduction}{section.1.1}{}}
\@writefile{toc}{\contentsline {section}{\numberline {1.2}Build Instructions}{1}{section.1.2}}
\newlabel{index_build}{{1.2}{1}{Build Instructions}{section.1.2}{}}
\@writefile{toc}{\contentsline {section}{\numberline {1.3}Hardware Description}{2}{section.1.3}}
\newlabel{index_hardware}{{1.3}{2}{Hardware Description}{section.1.3}{}}
\@writefile{lof}{\contentsline {figure}{\numberline {1.1}{\ignorespaces Retro\discretionary {-}{}{}Computer hardware interface}}{2}{figure.1.1}}
\@writefile{toc}{\contentsline {section}{\numberline {1.4}Usage Instructions}{3}{section.1.4}}
\newlabel{index_usage}{{1.4}{3}{Usage Instructions}{section.1.4}{}}
\@writefile{toc}{\contentsline {chapter}{\numberline {2}Module Index}{5}{chapter.2}}
\@writefile{lof}{\addvspace {10\p@ }}
\@writefile{lot}{\addvspace {10\p@ }}
\@writefile{toc}{\contentsline {section}{\numberline {2.1}Modules}{5}{section.2.1}}
\@writefile{toc}{\contentsline {chapter}{\numberline {3}Data Structure Index}{7}{chapter.3}}
\@writefile{lof}{\addvspace {10\p@ }}
\@writefile{lot}{\addvspace {10\p@ }}
\@writefile{toc}{\contentsline {section}{\numberline {3.1}Data Structures}{7}{section.3.1}}
\@writefile{toc}{\contentsline {chapter}{\numberline {4}File Index}{9}{chapter.4}}
\@writefile{lof}{\addvspace {10\p@ }}
\@writefile{lot}{\addvspace {10\p@ }}
\@writefile{toc}{\contentsline {section}{\numberline {4.1}File List}{9}{section.4.1}}
\@writefile{toc}{\contentsline {chapter}{\numberline {5}Module Documentation}{11}{chapter.5}}
\@writefile{lof}{\addvspace {10\p@ }}
\@writefile{lot}{\addvspace {10\p@ }}
\@writefile{toc}{\contentsline {section}{\numberline {5.1}Memory model}{11}{section.5.1}}
\newlabel{a00012}{{5.1}{11}{Memory model}{section.5.1}{}}
\newlabel{a00012_ga2fb476d2a94e0e54f1125306010164a1}{{5.1}{11}{Macros}{section*.3}{}}
\newlabel{a00012_ga385704542a5aed01d5f66618e0caff71}{{5.1}{11}{Macros}{section*.3}{}}
\newlabel{a00012_ga84a8dfdb29c52ee0557edde351ee510b}{{5.1}{11}{Macros}{section*.3}{}}
\newlabel{a00012_ga2e557d0f1a2deddffce03d6e89a16b81}{{5.1}{11}{Macros}{section*.3}{}}
\newlabel{a00012_ga83c86c179cdead905239e5512234caea}{{5.1}{11}{Macros}{section*.3}{}}
\newlabel{a00012_gaaf27c855898a1c3eef2a4a082a968360}{{5.1}{11}{Macros}{section*.3}{}}
\newlabel{a00012_ga06b17d512cf1dcc6f2a92d15f7477593}{{5.1}{11}{Macros}{section*.3}{}}
\newlabel{a00012_gac6200315ba0cf14c066921588d594cf2}{{5.1}{11}{Macros}{section*.3}{}}
\newlabel{a00012_ga95fca153593a0253be504dbcdfab79d5}{{5.1}{11}{Macros}{section*.3}{}}
\newlabel{a00012_gaec26240109b4b2e8e3be5ee6c49d4845}{{5.1}{11}{Macros}{section*.3}{}}
\newlabel{a00012_ga7a0de9705b0ef45dcc0ccac0edffeced}{{5.1}{11}{Macros}{section*.3}{}}
\newlabel{a00012_ga8f2ee07a63618b3c55ea91902ec49ba1}{{5.1}{11}{Macros}{section*.3}{}}
\@writefile{toc}{\contentsline {subsection}{\numberline {5.1.1}Detailed Description}{11}{subsection.5.1.1}}
\@input{a00013.aux}
\@writefile{toc}{\contentsline {chapter}{\numberline {6}Data Structure Documentation}{13}{chapter.6}}
\@writefile{lof}{\addvspace {10\p@ }}
\@writefile{lot}{\addvspace {10\p@ }}
\@writefile{toc}{\contentsline {section}{\numberline {6.1}Console\discretionary {-}{}{}State Struct Reference}{13}{section.6.1}}
\newlabel{a00001}{{6.1}{13}{Console\-State Struct Reference}{section.6.1}{}}
\newlabel{a00001_ace7c22e5231d407c119bfd8455838ee1}{{6.1}{13}{Data Fields}{section*.5}{}}
\newlabel{a00001_a64683ba4daabbe7c2dadc99a02087343}{{6.1}{13}{Data Fields}{section*.5}{}}
\@writefile{toc}{\contentsline {subsection}{\numberline {6.1.1}Detailed Description}{13}{subsection.6.1.1}}
\@writefile{toc}{\contentsline {section}{\numberline {6.2}Memory Struct Reference}{13}{section.6.2}}
\newlabel{a00002}{{6.2}{13}{Memory Struct Reference}{section.6.2}{}}
\newlabel{a00002_a6b5ecd12b41e1a835a6b405e897dec7c}{{6.2}{13}{Data Fields}{section*.6}{}}
\newlabel{a00002_a6839f999618ec64564bdefe712c47d70}{{6.2}{13}{Data Fields}{section*.6}{}}
\@writefile{toc}{\contentsline {subsection}{\numberline {6.2.1}Detailed Description}{14}{subsection.6.2.1}}
\@writefile{toc}{\contentsline {section}{\numberline {6.3}Registers Struct Reference}{14}{section.6.3}}
\newlabel{a00003}{{6.3}{14}{Registers Struct Reference}{section.6.3}{}}
\newlabel{a00003_a84accbb18240a3f04158ae329e07651b}{{6.3}{14}{Data Fields}{section*.7}{}}
\newlabel{a00003_a81fa5e74d13710601a2c39c53241a504}{{6.3}{14}{Data Fields}{section*.7}{}}
\newlabel{a00003_ac372815b4433b0105b00ecb9830d1d71}{{6.3}{14}{Data Fields}{section*.7}{}}
\newlabel{a00003_a09dc8cd56ca0b9c7329f2c43c57169a2}{{6.3}{14}{Data Fields}{section*.7}{}}
\newlabel{a00003_a0e37dd840a7c8716577c828d82e0e77e}{{6.3}{14}{Data Fields}{section*.7}{}}
\@writefile{toc}{\contentsline {subsection}{\numberline {6.3.1}Detailed Description}{14}{subsection.6.3.1}}
\@writefile{toc}{\contentsline {chapter}{\numberline {7}File Documentation}{15}{chapter.7}}
\@writefile{lof}{\addvspace {10\p@ }}
\@writefile{lot}{\addvspace {10\p@ }}
\@writefile{toc}{\contentsline {section}{\numberline {7.1}Assembly\discretionary {-}{}{}Interpreter.\discretionary {-}{}{}c File Reference}{15}{section.7.1}}
\newlabel{a00004}{{7.1}{15}{Assembly\-Interpreter.\-c File Reference}{section.7.1}{}}
\gdef \PWST@i{1}
\@writefile{toc}{\contentsline {subsection}{\numberline {7.1.1}Detailed Description}{17}{subsection.7.1.1}}
\@writefile{toc}{\contentsline {subsection}{\numberline {7.1.2}Function Documentation}{17}{subsection.7.1.2}}
\@writefile{toc}{\contentsline {subsubsection}{\numberline {7.1.2.1}A\discretionary {-}{}{}B\discretionary {-}{}{}A}{17}{subsubsection.7.1.2.1}}
\newlabel{a00004_a01f76067a92f909d5a1e3922eb1559be}{{7.1.2.1}{17}{A\-B\-A}{subsubsection.7.1.2.1}{}}
\@writefile{toc}{\contentsline {subsubsection}{\numberline {7.1.2.2}A\discretionary {-}{}{}D\discretionary {-}{}{}D\discretionary {-}{}{}D}{18}{subsubsection.7.1.2.2}}
\newlabel{a00004_aec88bb23110b0bfa1e34dea1648856e3}{{7.1.2.2}{18}{A\-D\-D\-D}{subsubsection.7.1.2.2}{}}
\gdef \PWST@ii{1}
\@writefile{toc}{\contentsline {subsubsection}{\numberline {7.1.2.3}A\discretionary {-}{}{}N\discretionary {-}{}{}D\discretionary {-}{}{}A}{19}{subsubsection.7.1.2.3}}
\newlabel{a00004_aca0bc5b769502cbb12a71f62f8eadd5a}{{7.1.2.3}{19}{A\-N\-D\-A}{subsubsection.7.1.2.3}{}}
\gdef \PWST@iii{2}
\gdef \PWST@iv{1}
\@writefile{toc}{\contentsline {subsubsection}{\numberline {7.1.2.4}A\discretionary {-}{}{}N\discretionary {-}{}{}D\discretionary {-}{}{}B}{20}{subsubsection.7.1.2.4}}
\newlabel{a00004_a454b5736eff95882d6c7636d93302022}{{7.1.2.4}{20}{A\-N\-D\-B}{subsubsection.7.1.2.4}{}}
\gdef \PWST@v{1}
\gdef \PWST@vi{1}
\@writefile{toc}{\contentsline {subsubsection}{\numberline {7.1.2.5}B\discretionary {-}{}{}R\discretionary {-}{}{}A}{21}{subsubsection.7.1.2.5}}
\newlabel{a00004_a6b95bb2efc042a4e7647c3ae267a6a1d}{{7.1.2.5}{21}{B\-R\-A}{subsubsection.7.1.2.5}{}}
\@writefile{toc}{\contentsline {subsubsection}{\numberline {7.1.2.6}E\discretionary {-}{}{}D\discretionary {-}{}{}I\discretionary {-}{}{}V}{21}{subsubsection.7.1.2.6}}
\newlabel{a00004_ae50e727de6fd26af0334310acfb85409}{{7.1.2.6}{21}{E\-D\-I\-V}{subsubsection.7.1.2.6}{}}
\gdef \PWST@vii{1}
\gdef \PWST@viii{1}
\@writefile{toc}{\contentsline {subsubsection}{\numberline {7.1.2.7}E\discretionary {-}{}{}M\discretionary {-}{}{}U\discretionary {-}{}{}L}{22}{subsubsection.7.1.2.7}}
\newlabel{a00004_a4b171a87a68f3ee7b1f7e2f49d31f4a5}{{7.1.2.7}{22}{E\-M\-U\-L}{subsubsection.7.1.2.7}{}}
\@writefile{toc}{\contentsline {subsubsection}{\numberline {7.1.2.8}E\discretionary {-}{}{}O\discretionary {-}{}{}R\discretionary {-}{}{}A}{22}{subsubsection.7.1.2.8}}
\newlabel{a00004_a152fb42c9ee98bca9525afd13931585b}{{7.1.2.8}{22}{E\-O\-R\-A}{subsubsection.7.1.2.8}{}}
\gdef \PWST@ix{1}
\@writefile{toc}{\contentsline {subsubsection}{\numberline {7.1.2.9}E\discretionary {-}{}{}O\discretionary {-}{}{}R\discretionary {-}{}{}B}{23}{subsubsection.7.1.2.9}}
\newlabel{a00004_aaa9c66f032a9ebdc886fc765427f7f34}{{7.1.2.9}{23}{E\-O\-R\-B}{subsubsection.7.1.2.9}{}}
\@writefile{toc}{\contentsline {subsubsection}{\numberline {7.1.2.10}execute}{24}{subsubsection.7.1.2.10}}
\newlabel{a00004_ad10d3a9aaaa282fd30bcf5fac58f3e5b}{{7.1.2.10}{24}{execute}{subsubsection.7.1.2.10}{}}
\gdef \PWST@x{1}
\@writefile{toc}{\contentsline {subsubsection}{\numberline {7.1.2.11}I\discretionary {-}{}{}D\discretionary {-}{}{}I\discretionary {-}{}{}V}{25}{subsubsection.7.1.2.11}}
\newlabel{a00004_a66a9c551b350c9fe1586044c4abe9bfd}{{7.1.2.11}{25}{I\-D\-I\-V}{subsubsection.7.1.2.11}{}}
\gdef \PWST@xi{1}
\gdef \PWST@xii{1}
\gdef \PWST@xiii{1}
\@writefile{toc}{\contentsline {subsubsection}{\numberline {7.1.2.12}I\discretionary {-}{}{}N\discretionary {-}{}{}C}{26}{subsubsection.7.1.2.12}}
\newlabel{a00004_a79f465431f28451db0eb59ca607c1b15}{{7.1.2.12}{26}{I\-N\-C}{subsubsection.7.1.2.12}{}}
\@writefile{toc}{\contentsline {subsubsection}{\numberline {7.1.2.13}I\discretionary {-}{}{}N\discretionary {-}{}{}C\discretionary {-}{}{}A}{26}{subsubsection.7.1.2.13}}
\newlabel{a00004_adb78d234044fc2d85419e2d7272e811b}{{7.1.2.13}{26}{I\-N\-C\-A}{subsubsection.7.1.2.13}{}}
\gdef \PWST@xiv{1}
\gdef \PWST@xv{1}
\gdef \PWST@xvi{1}
\@writefile{toc}{\contentsline {subsubsection}{\numberline {7.1.2.14}I\discretionary {-}{}{}N\discretionary {-}{}{}C\discretionary {-}{}{}B}{27}{subsubsection.7.1.2.14}}
\newlabel{a00004_a6a14f68c468c3a863fde85cd4a054984}{{7.1.2.14}{27}{I\-N\-C\-B}{subsubsection.7.1.2.14}{}}
\@writefile{toc}{\contentsline {subsubsection}{\numberline {7.1.2.15}I\discretionary {-}{}{}N\discretionary {-}{}{}X}{27}{subsubsection.7.1.2.15}}
\newlabel{a00004_ac99b46800a1c31b35fecc8caadbd19a0}{{7.1.2.15}{27}{I\-N\-X}{subsubsection.7.1.2.15}{}}
\@writefile{toc}{\contentsline {subsubsection}{\numberline {7.1.2.16}I\discretionary {-}{}{}N\discretionary {-}{}{}Y}{27}{subsubsection.7.1.2.16}}
\newlabel{a00004_a065d83a349b3df758e781fcaec6a3b78}{{7.1.2.16}{27}{I\-N\-Y}{subsubsection.7.1.2.16}{}}
\gdef \PWST@xvii{1}
\gdef \PWST@xviii{1}
\@writefile{toc}{\contentsline {subsubsection}{\numberline {7.1.2.17}J\discretionary {-}{}{}M\discretionary {-}{}{}P}{28}{subsubsection.7.1.2.17}}
\newlabel{a00004_a40e15ea4bc87125ebb2634ccbec464e9}{{7.1.2.17}{28}{J\-M\-P}{subsubsection.7.1.2.17}{}}
\@writefile{toc}{\contentsline {subsubsection}{\numberline {7.1.2.18}L\discretionary {-}{}{}D\discretionary {-}{}{}A\discretionary {-}{}{}A}{28}{subsubsection.7.1.2.18}}
\newlabel{a00004_a132fdac8f23b94091edabc79fe86b787}{{7.1.2.18}{28}{L\-D\-A\-A}{subsubsection.7.1.2.18}{}}
\gdef \PWST@xix{1}
\@writefile{toc}{\contentsline {subsubsection}{\numberline {7.1.2.19}L\discretionary {-}{}{}D\discretionary {-}{}{}A\discretionary {-}{}{}B}{29}{subsubsection.7.1.2.19}}
\newlabel{a00004_a0e92161b089108d1eb60fe7e724cf4c8}{{7.1.2.19}{29}{L\-D\-A\-B}{subsubsection.7.1.2.19}{}}
\gdef \PWST@xx{1}
\@writefile{toc}{\contentsline {subsubsection}{\numberline {7.1.2.20}L\discretionary {-}{}{}D\discretionary {-}{}{}D}{30}{subsubsection.7.1.2.20}}
\newlabel{a00004_a051baeeeb161ab2b8e99b065e935f096}{{7.1.2.20}{30}{L\-D\-D}{subsubsection.7.1.2.20}{}}
\gdef \PWST@xxi{1}
\@writefile{toc}{\contentsline {subsubsection}{\numberline {7.1.2.21}L\discretionary {-}{}{}D\discretionary {-}{}{}X}{31}{subsubsection.7.1.2.21}}
\newlabel{a00004_a182007a5aea5587d8033fdfd146f0b46}{{7.1.2.21}{31}{L\-D\-X}{subsubsection.7.1.2.21}{}}
\@writefile{toc}{\contentsline {subsubsection}{\numberline {7.1.2.22}L\discretionary {-}{}{}D\discretionary {-}{}{}Y}{32}{subsubsection.7.1.2.22}}
\newlabel{a00004_a87714156e1a001594e0e6d192104e8d5}{{7.1.2.22}{32}{L\-D\-Y}{subsubsection.7.1.2.22}{}}
\gdef \PWST@xxii{1}
\gdef \PWST@xxiii{1}
\@writefile{toc}{\contentsline {subsubsection}{\numberline {7.1.2.23}M\discretionary {-}{}{}U\discretionary {-}{}{}L}{33}{subsubsection.7.1.2.23}}
\newlabel{a00004_a78958ce4ad4787a978f4211f90da8344}{{7.1.2.23}{33}{M\-U\-L}{subsubsection.7.1.2.23}{}}
\gdef \PWST@xxiv{1}
\gdef \PWST@xxv{1}
\@writefile{toc}{\contentsline {subsubsection}{\numberline {7.1.2.24}next\discretionary {-}{}{}Word}{34}{subsubsection.7.1.2.24}}
\newlabel{a00004_ae68c1371781a674e792394b02928b1ef}{{7.1.2.24}{34}{next\-Word}{subsubsection.7.1.2.24}{}}
\@writefile{toc}{\contentsline {subsubsection}{\numberline {7.1.2.25}O\discretionary {-}{}{}R\discretionary {-}{}{}A\discretionary {-}{}{}A}{34}{subsubsection.7.1.2.25}}
\newlabel{a00004_a1d7ca553c224807797cd8a42117506e8}{{7.1.2.25}{34}{O\-R\-A\-A}{subsubsection.7.1.2.25}{}}
\gdef \PWST@xxvi{1}
\gdef \PWST@xxvii{1}
\@writefile{toc}{\contentsline {subsubsection}{\numberline {7.1.2.26}O\discretionary {-}{}{}R\discretionary {-}{}{}A\discretionary {-}{}{}B}{35}{subsubsection.7.1.2.26}}
\newlabel{a00004_a8ed0c9643a50ddc53c9b5c08875f5121}{{7.1.2.26}{35}{O\-R\-A\-B}{subsubsection.7.1.2.26}{}}
\@writefile{toc}{\contentsline {subsubsection}{\numberline {7.1.2.27}redirect}{35}{subsubsection.7.1.2.27}}
\newlabel{a00004_a30e991671f7f31434763fbe79eb972a6}{{7.1.2.27}{35}{redirect}{subsubsection.7.1.2.27}{}}
\gdef \PWST@xxviii{1}
\@writefile{toc}{\contentsline {subsubsection}{\numberline {7.1.2.28}S\discretionary {-}{}{}B\discretionary {-}{}{}A}{36}{subsubsection.7.1.2.28}}
\newlabel{a00004_a5563b7be2816ff415ed64917bf1ee19a}{{7.1.2.28}{36}{S\-B\-A}{subsubsection.7.1.2.28}{}}
\gdef \PWST@xxix{1}
\@writefile{toc}{\contentsline {subsubsection}{\numberline {7.1.2.29}S\discretionary {-}{}{}T\discretionary {-}{}{}A\discretionary {-}{}{}A}{37}{subsubsection.7.1.2.29}}
\newlabel{a00004_af2ee528467625d70f15bdfee3332156a}{{7.1.2.29}{37}{S\-T\-A\-A}{subsubsection.7.1.2.29}{}}
\@writefile{toc}{\contentsline {subsubsection}{\numberline {7.1.2.30}S\discretionary {-}{}{}T\discretionary {-}{}{}A\discretionary {-}{}{}B}{38}{subsubsection.7.1.2.30}}
\newlabel{a00004_a0751bdec40049068ddaafd1d37017c24}{{7.1.2.30}{38}{S\-T\-A\-B}{subsubsection.7.1.2.30}{}}
\gdef \PWST@xxx{1}
\gdef \PWST@xxxi{1}
\@writefile{toc}{\contentsline {subsubsection}{\numberline {7.1.2.31}S\discretionary {-}{}{}T\discretionary {-}{}{}D}{39}{subsubsection.7.1.2.31}}
\newlabel{a00004_a43f1b7890e92b9a5cdeea802e47fdf71}{{7.1.2.31}{39}{S\-T\-D}{subsubsection.7.1.2.31}{}}
\gdef \PWST@xxxii{1}
\@writefile{toc}{\contentsline {subsubsection}{\numberline {7.1.2.32}step}{40}{subsubsection.7.1.2.32}}
\newlabel{a00004_a2812b3c5b01c9e454a43a73a3c19d01f}{{7.1.2.32}{40}{step}{subsubsection.7.1.2.32}{}}
\@writefile{toc}{\contentsline {subsubsection}{\numberline {7.1.2.33}S\discretionary {-}{}{}U\discretionary {-}{}{}B\discretionary {-}{}{}D}{43}{subsubsection.7.1.2.33}}
\newlabel{a00004_ac38d06565e047be8af0761eb224d9dba}{{7.1.2.33}{43}{S\-U\-B\-D}{subsubsection.7.1.2.33}{}}
\gdef \PWST@xxxiii{1}
\@writefile{toc}{\contentsline {subsubsection}{\numberline {7.1.2.34}update\discretionary {-}{}{}C\discretionary {-}{}{}C\discretionary {-}{}{}R\discretionary {-}{}{}For16\discretionary {-}{}{}Bit\discretionary {-}{}{}Add\discretionary {-}{}{}And\discretionary {-}{}{}Subtract}{44}{subsubsection.7.1.2.34}}
\newlabel{a00004_a73b8b094ea00d201c54563f197c76efe}{{7.1.2.34}{44}{update\-C\-C\-R\-For16\-Bit\-Add\-And\-Subtract}{subsubsection.7.1.2.34}{}}
\gdef \PWST@xxxiv{2}
\gdef \PWST@xxxv{1}
\gdef \PWST@xxxvi{1}
\@writefile{toc}{\contentsline {subsubsection}{\numberline {7.1.2.35}update\discretionary {-}{}{}C\discretionary {-}{}{}C\discretionary {-}{}{}R\discretionary {-}{}{}For8\discretionary {-}{}{}Bit\discretionary {-}{}{}Add\discretionary {-}{}{}And\discretionary {-}{}{}Subtract}{45}{subsubsection.7.1.2.35}}
\newlabel{a00004_a1bcf443ca282446229c9656d2723c272}{{7.1.2.35}{45}{update\-C\-C\-R\-For8\-Bit\-Add\-And\-Subtract}{subsubsection.7.1.2.35}{}}
\@writefile{toc}{\contentsline {subsubsection}{\numberline {7.1.2.36}update\discretionary {-}{}{}C\discretionary {-}{}{}C\discretionary {-}{}{}R\discretionary {-}{}{}For\discretionary {-}{}{}Registers}{45}{subsubsection.7.1.2.36}}
\newlabel{a00004_a256c79e79f29b78d2e0bab3c78d6846a}{{7.1.2.36}{45}{update\-C\-C\-R\-For\-Registers}{subsubsection.7.1.2.36}{}}
\@writefile{toc}{\contentsline {section}{\numberline {7.2}Console\discretionary {-}{}{}I\discretionary {-}{}{}O.\discretionary {-}{}{}c File Reference}{45}{section.7.2}}
\newlabel{a00006}{{7.2}{45}{Console\-I\-O.\-c File Reference}{section.7.2}{}}
\gdef \PWST@xxxvii{1}
\newlabel{a00006_aa1b06f1217461a229e4099e64c630bd0}{{7.2}{46}{Functions}{section*.9}{}}
\newlabel{a00006_a7e39cb7e6cbc725d3f910131960c28af}{{7.2}{46}{Functions}{section*.9}{}}
\@writefile{toc}{\contentsline {subsection}{\numberline {7.2.1}Detailed Description}{46}{subsection.7.2.1}}
\@writefile{toc}{\contentsline {subsection}{\numberline {7.2.2}Function Documentation}{46}{subsection.7.2.2}}
\@writefile{toc}{\contentsline {subsubsection}{\numberline {7.2.2.1}update\discretionary {-}{}{}Input\discretionary {-}{}{}State}{46}{subsubsection.7.2.2.1}}
\newlabel{a00006_af78a0200e15ce7ab1c4a4c29e475be4f}{{7.2.2.1}{46}{update\-Input\-State}{subsubsection.7.2.2.1}{}}
\@writefile{toc}{\contentsline {subsubsection}{\numberline {7.2.2.2}update\discretionary {-}{}{}Output\discretionary {-}{}{}State}{47}{subsubsection.7.2.2.2}}
\newlabel{a00006_a5a6ae7c6614fb51426b13dfca49f84c6}{{7.2.2.2}{47}{update\-Output\-State}{subsubsection.7.2.2.2}{}}
\gdef \PWST@xxxviii{1}
\@writefile{toc}{\contentsline {section}{\numberline {7.3}H\discretionary {-}{}{}C\discretionary {-}{}{}S12\discretionary {-}{}{}Assembler.\discretionary {-}{}{}h File Reference}{48}{section.7.3}}
\newlabel{a00008}{{7.3}{48}{H\-C\-S12\-Assembler.\-h File Reference}{section.7.3}{}}
\newlabel{a00008_a6c8de73bb604d91743c7f6f356eb171e}{{7.3}{49}{Macros}{section*.10}{}}
\newlabel{a00008_a0aac6c68a5a4eb4d5dbf7f94919de21c}{{7.3}{49}{Macros}{section*.10}{}}
\newlabel{a00008_af9861bac4261f2b4d31c93c1aee088da}{{7.3}{49}{Macros}{section*.10}{}}
\newlabel{a00008_a03f542f1e0e2ba512c4ed189decfee3d}{{7.3}{49}{Macros}{section*.10}{}}
\newlabel{a00008_a223697fc2f8a4423171d86ced5c8872b}{{7.3}{49}{Macros}{section*.10}{}}
\newlabel{a00008_a2702d1cfdeba4e4eaafe622597985201}{{7.3}{49}{Macros}{section*.10}{}}
\newlabel{a00008_aa3bf1aa6e181417602db47b76e1e5464}{{7.3}{49}{Macros}{section*.10}{}}
\newlabel{a00008_afd0086f6d03b7b9d3dcf316957b6f52d}{{7.3}{49}{Macros}{section*.10}{}}
\newlabel{a00008_aea600b52f5b2b44dd5bbac9d610b39c2}{{7.3}{49}{Macros}{section*.10}{}}
\newlabel{a00008_aba276340333b34d60c6245828c113e4a}{{7.3}{49}{Macros}{section*.10}{}}
\newlabel{a00008_a0fe171c3cbe79ffc855b05b0508dd0e3}{{7.3}{49}{Macros}{section*.10}{}}
\newlabel{a00008_a59b6420e3ff340a7527221c86a551e55}{{7.3}{49}{Macros}{section*.10}{}}
\newlabel{a00008_a2dd18ffda46c7c4e091ac6ef30b3aff6}{{7.3}{49}{Macros}{section*.10}{}}
\newlabel{a00008_ae2cf6a0fa2ef5a98cc46642f90fdacd0}{{7.3}{49}{Macros}{section*.10}{}}
\newlabel{a00008_a82118db733a59093b6051999a34f3180}{{7.3}{49}{Macros}{section*.10}{}}
\newlabel{a00008_af038c8270ce7ad7abda0e8bc4e366b20}{{7.3}{49}{Macros}{section*.10}{}}
\newlabel{a00008_afc6a0995eadb430cca15b186c2d44c66}{{7.3}{50}{Macros}{section*.10}{}}
\newlabel{a00008_a1385145b6cefe3b1e55bff4e3390a1f3}{{7.3}{50}{Macros}{section*.10}{}}
\newlabel{a00008_a6ef8ac76a8f566a15788b8eaefccb3b3}{{7.3}{50}{Macros}{section*.10}{}}
\newlabel{a00008_a8477adf25f5784b45e364b4302ef4b6d}{{7.3}{50}{Macros}{section*.10}{}}
\newlabel{a00008_af985ef2e575ee8607daddb88c5c98e0b}{{7.3}{50}{Macros}{section*.10}{}}
\newlabel{a00008_adcf1ed458988f979c44d0070be5e6a39}{{7.3}{50}{Macros}{section*.10}{}}
\newlabel{a00008_a402fd3f7067e278c27ba2086ea43d7ce}{{7.3}{50}{Macros}{section*.10}{}}
\newlabel{a00008_add9bfb1bc04fe87ece7424b85f1cad3a}{{7.3}{50}{Macros}{section*.10}{}}
\newlabel{a00008_af13ab7c2a2778862d2abb2af081483c8}{{7.3}{50}{Macros}{section*.10}{}}
\newlabel{a00008_acf03d5b654376f24e6b9771a975f7479}{{7.3}{50}{Macros}{section*.10}{}}
\newlabel{a00008_ac5c5becc926f38bb03d80672aeaf8714}{{7.3}{50}{Macros}{section*.10}{}}
\newlabel{a00008_a9bc57493ff4decff240f119fa5867345}{{7.3}{50}{Macros}{section*.10}{}}
\newlabel{a00008_a2a08978f22cceb463fc7b15f23d3817e}{{7.3}{50}{Macros}{section*.10}{}}
\newlabel{a00008_a58af37bea68c147bc9bf179a343cec78}{{7.3}{50}{Macros}{section*.10}{}}
\newlabel{a00008_abed4a8720ecdb717755a18d204ca4135}{{7.3}{50}{Macros}{section*.10}{}}
\newlabel{a00008_ad732a851a5b0c5daaf74423d6b08e9b3}{{7.3}{50}{Macros}{section*.10}{}}
\newlabel{a00008_aff82f5f2986293b0e6fac6974236e4bf}{{7.3}{50}{Macros}{section*.10}{}}
\newlabel{a00008_a3d01767807a9d7293dc64d4d6611a5d1}{{7.3}{50}{Macros}{section*.10}{}}
\newlabel{a00008_aacefb8dc483a58ea17be3b2d2c68961e}{{7.3}{50}{Macros}{section*.10}{}}
\newlabel{a00008_a1b6f15a796cf09e023dec7fe98737a96}{{7.3}{50}{Macros}{section*.10}{}}
\newlabel{a00008_aa980b9830a01812946bc1ed870aa0f15}{{7.3}{50}{Macros}{section*.10}{}}
\newlabel{a00008_aed77a28b40fa0a2a4c190d40a984292e}{{7.3}{50}{Macros}{section*.10}{}}
\newlabel{a00008_a0ad51c85bdcb06e9c1f6e097d870dc69}{{7.3}{50}{Macros}{section*.10}{}}
\newlabel{a00008_a2a5c95acb24147adb16059fe5fdc457c}{{7.3}{50}{Macros}{section*.10}{}}
\newlabel{a00008_a17ba741fb37b82a251e7b2088829bf9b}{{7.3}{50}{Macros}{section*.10}{}}
\newlabel{a00008_a51757674a8f3708e2df3e2cc7797edff}{{7.3}{50}{Macros}{section*.10}{}}
\newlabel{a00008_a3eedc68a7bf621036fe43449796f19cf}{{7.3}{50}{Macros}{section*.10}{}}
\newlabel{a00008_a80967e57f92f6fb61a92cd795d1a427c}{{7.3}{50}{Macros}{section*.10}{}}
\newlabel{a00008_af3c49bad1afb2188bc1ee2a32e304ccc}{{7.3}{50}{Macros}{section*.10}{}}
\newlabel{a00008_a0bc9aab0283acbf14e35e5a36218e075}{{7.3}{50}{Macros}{section*.10}{}}
\newlabel{a00008_ac0dd77b40880d0f39120f60a2fbf36f3}{{7.3}{50}{Macros}{section*.10}{}}
\newlabel{a00008_a85808de1dbc2b4172778c21d57c5a420}{{7.3}{50}{Macros}{section*.10}{}}
\newlabel{a00008_acf0dc6c68681e52bd85897cafbc72c92}{{7.3}{50}{Macros}{section*.10}{}}
\newlabel{a00008_a734c602be0faaf320e8275d44c3a7358}{{7.3}{50}{Macros}{section*.10}{}}
\newlabel{a00008_a44b73b3da546c59d6931cb009b8b5b88}{{7.3}{51}{Macros}{section*.10}{}}
\newlabel{a00008_af9ed483f14c52f9f0a16d7f56ff04e60}{{7.3}{51}{Macros}{section*.10}{}}
\newlabel{a00008_a8c57bb1b62bcd36e76bf1b48f374b1e8}{{7.3}{51}{Macros}{section*.10}{}}
\newlabel{a00008_a7caf98419a6cf9218a5888f47b09db88}{{7.3}{51}{Macros}{section*.10}{}}
\newlabel{a00008_a776da422e1c3a8c54350b8d36396e8da}{{7.3}{51}{Macros}{section*.10}{}}
\newlabel{a00008_a2cd2543ee4980f634c97f70abe5b6a0e}{{7.3}{51}{Macros}{section*.10}{}}
\newlabel{a00008_a021f758eeb9a7b87b3fc91bf6b88ff4e}{{7.3}{51}{Macros}{section*.10}{}}
\newlabel{a00008_aea0ecd3c837aaae64b1b446200fd02c5}{{7.3}{51}{Macros}{section*.10}{}}
\newlabel{a00008_ade23cb246bb805b99e0abe16f6eb22a4}{{7.3}{51}{Macros}{section*.10}{}}
\newlabel{a00008_af0670826e7566f771da5db1298375edf}{{7.3}{51}{Macros}{section*.10}{}}
\newlabel{a00008_a62999a38bf9ef5bdec3e7a47af2cabd2}{{7.3}{51}{Macros}{section*.10}{}}
\newlabel{a00008_abb2706047e1324c0d7a0229e3f38e681}{{7.3}{51}{Macros}{section*.10}{}}
\newlabel{a00008_a9562b8e21aae260cdac0890ef66552cd}{{7.3}{51}{Macros}{section*.10}{}}
\newlabel{a00008_a48052522fed1b787c0aa32489207c2e6}{{7.3}{51}{Macros}{section*.10}{}}
\newlabel{a00008_a48e19058947a2a19bfb9d29208b19c5f}{{7.3}{51}{Macros}{section*.10}{}}
\@writefile{toc}{\contentsline {subsection}{\numberline {7.3.1}Detailed Description}{51}{subsection.7.3.1}}
\@writefile{toc}{\contentsline {section}{\numberline {7.4}main.\discretionary {-}{}{}c File Reference}{51}{section.7.4}}
\newlabel{a00009}{{7.4}{51}{main.\-c File Reference}{section.7.4}{}}
\newlabel{a00009_aa79028fa1ac138d2b08a2425ce35215e}{{7.4}{52}{Variables}{section*.11}{}}
\newlabel{a00009_a38270bb225d15790035daf2841865f16}{{7.4}{52}{Variables}{section*.11}{}}
\newlabel{a00009_a1ffa4eb673c4c5d91d76136aefd94855}{{7.4}{52}{Variables}{section*.11}{}}
\newlabel{a00009_a1455bea531cf95671ee173c5a84a82d2}{{7.4}{52}{Variables}{section*.11}{}}
\newlabel{a00009_a4c642adb9d2e0d10f8daba2db17a49cf}{{7.4}{52}{Variables}{section*.11}{}}
\newlabel{a00009_a305e269fad5964c338f69651a011f1af}{{7.4}{52}{Variables}{section*.11}{}}
\newlabel{a00009_abb4daa9f0382b94b7846746a9ff9cb8c}{{7.4}{52}{Variables}{section*.11}{}}
\newlabel{a00009_a41b911c2cc3f1d6fb1d57e504ad505a0}{{7.4}{52}{Variables}{section*.11}{}}
\@writefile{toc}{\contentsline {subsection}{\numberline {7.4.1}Detailed Description}{52}{subsection.7.4.1}}
\@writefile{toc}{\contentsline {subsection}{\numberline {7.4.2}Variable Documentation}{52}{subsection.7.4.2}}
\@writefile{toc}{\contentsline {subsubsection}{\numberline {7.4.2.1}i}{52}{subsubsection.7.4.2.1}}
\newlabel{a00009_a7e98b8a17c0aad30ba64d47b74e2a6c1}{{7.4.2.1}{52}{i}{subsubsection.7.4.2.1}{}}
\@writefile{toc}{\contentsline {section}{\numberline {7.5}Memory\discretionary {-}{}{}Model.\discretionary {-}{}{}h File Reference}{53}{section.7.5}}
\newlabel{a00010}{{7.5}{53}{Memory\-Model.\-h File Reference}{section.7.5}{}}
\newlabel{a00012_ga2fb476d2a94e0e54f1125306010164a1}{{7.5}{53}{Macros}{section*.13}{}}
\newlabel{a00012_ga385704542a5aed01d5f66618e0caff71}{{7.5}{53}{Macros}{section*.13}{}}
\newlabel{a00012_ga84a8dfdb29c52ee0557edde351ee510b}{{7.5}{53}{Macros}{section*.13}{}}
\newlabel{a00012_ga2e557d0f1a2deddffce03d6e89a16b81}{{7.5}{53}{Macros}{section*.13}{}}
\newlabel{a00012_ga83c86c179cdead905239e5512234caea}{{7.5}{53}{Macros}{section*.13}{}}
\newlabel{a00012_gaaf27c855898a1c3eef2a4a082a968360}{{7.5}{53}{Macros}{section*.13}{}}
\newlabel{a00012_ga06b17d512cf1dcc6f2a92d15f7477593}{{7.5}{53}{Macros}{section*.13}{}}
\newlabel{a00012_gac6200315ba0cf14c066921588d594cf2}{{7.5}{53}{Macros}{section*.13}{}}
\newlabel{a00012_ga95fca153593a0253be504dbcdfab79d5}{{7.5}{53}{Macros}{section*.13}{}}
\newlabel{a00012_gaec26240109b4b2e8e3be5ee6c49d4845}{{7.5}{53}{Macros}{section*.13}{}}
\newlabel{a00012_ga7a0de9705b0ef45dcc0ccac0edffeced}{{7.5}{53}{Macros}{section*.13}{}}
\newlabel{a00012_ga8f2ee07a63618b3c55ea91902ec49ba1}{{7.5}{54}{Macros}{section*.13}{}}
\@writefile{toc}{\contentsline {subsection}{\numberline {7.5.1}Detailed Description}{54}{subsection.7.5.1}}
\@writefile{toc}{\contentsline {section}{\numberline {7.6}opts.\discretionary {-}{}{}h File Reference}{54}{section.7.6}}
\newlabel{a00011}{{7.6}{54}{opts.\-h File Reference}{section.7.6}{}}
\newlabel{a00011_ad6901e54c6f57d3474e5dc222f897abc}{{7.6}{54}{Macros}{section*.14}{}}
\newlabel{a00011_aec93e83855ac17c3c25c55c37ca186dd}{{7.6}{54}{Macros}{section*.14}{}}
\newlabel{a00011_a4cfc63e05db4883dc4b60a1245a9ffc5}{{7.6}{54}{Macros}{section*.14}{}}
\newlabel{a00011_a9f46d429690424bb7cd8e8543c2ac212}{{7.6}{54}{Macros}{section*.14}{}}
\newlabel{a00011_a833476f6ca01a03f817e3192f86f8fc4}{{7.6}{54}{Macros}{section*.14}{}}
\newlabel{a00011_a21965c1c88fed1f09ffb40452bd23f83}{{7.6}{54}{Macros}{section*.14}{}}
\newlabel{a00011_ae7ec3bd0d681e31a337433ef55d1703b}{{7.6}{54}{Macros}{section*.14}{}}
\newlabel{a00011_abee822a91e6bf4845b30ab4c2f943bf3}{{7.6}{55}{Macros}{section*.14}{}}
\newlabel{a00011_a8620e5409e15bb59f7ed9ed2cbdb058d}{{7.6}{55}{Macros}{section*.14}{}}
\newlabel{a00011_ad078fa307d54ea7df0860c44b18bc8f6}{{7.6}{55}{Macros}{section*.14}{}}
\newlabel{a00011_a74692bd9d6ae920ce377ddb6f8e10bb9}{{7.6}{55}{Macros}{section*.14}{}}
\newlabel{a00011_ac85ed63d5a6f89ea583afac25e902378}{{7.6}{55}{Macros}{section*.14}{}}
\newlabel{a00011_afc9de5e4b1dad1107589764729d6d39f}{{7.6}{55}{Macros}{section*.14}{}}
\newlabel{a00011_a6cdfc500972bd4059da7f6e75352a1e9}{{7.6}{55}{Macros}{section*.14}{}}
\newlabel{a00013_ga16c061d0f0d68324dc7532e78502bc17}{{7.6}{55}{Macros}{section*.14}{}}
\newlabel{a00013_ga5bf25a943f9cf1ca95b46d386cd98788}{{7.6}{55}{Macros}{section*.14}{}}
\newlabel{a00013_gaed0f88a4b26c118a1b6fe30fa5a7bb26}{{7.6}{55}{Macros}{section*.14}{}}
\newlabel{a00013_ga22ef734f55aa6db995aec2a23ac37f76}{{7.6}{55}{Macros}{section*.14}{}}
\newlabel{a00013_ga25188c7fcaf98b2d324a977b0c8e3bd7}{{7.6}{55}{Macros}{section*.14}{}}
\newlabel{a00013_ga0d0347250ec573cd8dc60189ffee486e}{{7.6}{55}{Macros}{section*.14}{}}
\newlabel{a00013_ga1060930df93f34f91840336237336c82}{{7.6}{55}{Macros}{section*.14}{}}
\newlabel{a00013_ga97bc25abdcd9251461e0408000e72054}{{7.6}{55}{Macros}{section*.14}{}}
\newlabel{a00013_gaf6423abe61b87b79f154be9a2b0fd67b}{{7.6}{55}{Macros}{section*.14}{}}
\newlabel{a00013_ga9e448bc39fcf7d6d6be9ea71a9b78858}{{7.6}{55}{Macros}{section*.14}{}}
\@writefile{toc}{\contentsline {subsection}{\numberline {7.6.1}Detailed Description}{55}{subsection.7.6.1}}
\@writefile{toc}{\contentsline {chapter}{Index}{56}{section*.16}}
